<?xml version="1.0" encoding="UTF-8" standalone="no"?>
<svg xmlns="http://www.w3.org/2000/svg" version="1.0" width="208" height="186">
  <path style="fill:#e8ae0f"
     d="m 150,68 c 0,0 -3,3 -3,3 -6,-16 -16,-27 -29,-34 0,0 48,-37 48,-37 -13,22 -16,53 -16,68 z m 29,-31 c 0,0 -11,2 -17,19 -5,15 -9,20 -14,25 0,0 -59,61 -59,61 0,0 -10,9 -22,13 -17,5 -50,10 -60,11 -10,1 -3,7 8,14 11,7 13,10 35,-2 22,-12 43,-1 88,-14 45,-13 54,-49 53,-76 -1,-26 3,-32 5,-34 3,-2 13,-5 13,-5 0,0 -12,-4 -12,-4 0,0 -1,-2 -6,-6 -5,-4 -12,-2 -12,-2 z M 84,134 C 64,107 34,98 0,103 c 0,0 58,-66 58,-66 34,-5 72,3 82,39 0,0 -55,58 -55,58 0,0 -1,-1 -1,-2 z" />
</svg>
